…
%copy first-line%
```sql
select count(*) from speed;
```


## Performing analytics

With data flowing into MotherDuck, you can perform any analytics using SQL.  For example, we can compute the average speed of vehicles by running this on the MotherDuck UI query tool or DuckDB CLI:

%copy first-line%
```bash
select vehicle, avg(speed) from speed  group by vehicle;
┌─────────┬────────────────────┐
│ vehicle │     avg(speed)     │
│  int32  │       double       │
├─────────┼────────────────────┤
│    1407 │  5.878316847404631 │
│    1823 │ 12.250563307966985 │
│    2244 │   4.29509804763046 │
│    1334 │ 3.4598148077450417 │
│    1606 │ 5.9982051315725355 │
│    1347 │ 2.4579999693802423 │
│    1211 │  5.198823541402817 │
│      25 │ 10.653684204542323 │
│    1156 │  5.878526310583479 │
│    1382 │  8.446666672116233 │
│    1173 │ 12.593883457005893 │
│    1170 │  4.158035727151271 │
│    1831 │  8.553492042753431 │
│    2215 │  9.572083353996277 │
│    1391 │ 0.8761818246407942 │
│     285 │  2.562727277929133 │
│    1410 │  9.533480930366094 │
│    1037 │ 11.678289494558907 │
│    1114 │   5.06574714663385 │
│    1534 │  8.432022506936212 │
│      ·  │           ·        │
│      ·  │           ·        │
│      ·  │           ·        │
│     790 │   8.17142847606114 │
│     964 │  8.327142868723188 │
│    1503 │ 16.708571434020996 │
│    1602 │  8.161858405687113 │
│    6326 │  29.88338432312012 │
│    1049 │ 12.826333268483479 │
│     454 │ 3.5763491903032576 │
│    1343 │ 0.9916250079870224 │
│     320 │ 17.509583353996277 │
│     266 │ 3.7031999796628954 │
│    1023 │  7.556637190084542 │
│     418 │ 1.9262499809265137 │
│    1900 │  8.037222094006008 │
│    1916 │  5.429999947547913 │
│     921 │  22.95133336385091 │
│    2208 │ 11.416666603088379 │
│    1103 │ 11.645714351109095 │
│    1535 │ 12.809999942779541 │
│     988 │  3.474313719599855 │
│    1341 │  9.315308665787732 │
├─────────┴────────────────────┤
│     920 rows (40 shown)      │
└──────────────────────────────┘
```
…
